Retrieve Articles from a Nature Journal's Current Issue — get_articles • NatChat
…
    Value

    A tibble with columns: title, url, abstract, and source. If no articles are found, returns an empty tibble.

    Details

    The journal argument is matched (case-insensitively) against available entries from nat_journals().
If not found, an informative error is thrown. Abstracts that are missing are replaced with "Abstract not available".
If titles, URLs, and abstracts differ in length, they are truncated to the shortest length with a warning.

    Examples

get_articles("Nature Biotechnology")
#> # A tibble: 37 × 4
#>    title                                                   url   abstract source
#>    <chr>                                                   <chr> <chr>    <chr> 
#>  1 Biopharma dives into tumor-seeking radioactive drugs    http… Big pha… Natur…
#>  2 Consternation follows Marks’ FDA departure              http… Abstrac… Natur…
#>  3 FDA pushes to replace animal testing                    http… Abstrac… Natur…
#>  4 Fruit waste for catwalk fashion                         http… Abstrac… Natur…
#>  5 Brazil’s low-cost CAR-Ts take on Global South           http… Abstrac… Natur…
#>  6 Biotech news from around the world                      http… Abstrac… Natur…
#>  7 Precision neuroscience                                  http… Develop… Natur…
#>  8 Lengthy delays in H5N1 genome submissions to GISAID     http… Abstrac… Natur…
#>  9 Openness guides discovery                               http… Abstrac… Natur…
#> 10 The Protein Design Archive (PDA): insights from 40 yea… http… Abstrac… Natur…
#> # ℹ 27 more rows
…
