List Available Nature Journals and Their Slugs — nat_journals • NatChat
…
slug
The short URL identifier (slug) used in Nature journal web addresses

    Details

The slug corresponds to the subdirectory used in Nature URLs (e.g., "https://www.nature.com/nbt/" for Nature Biotechnology).

Journal name matching is case-insensitive and supports exact matches only (no partial or fuzzy matching).

    Examples

nat_journals()
#> # A tibble: 68 × 2
#>    journal                        slug            
#>    <chr>                          <chr>           
#>  1 Nature                         nature          
#>  2 Nature Aging                   nataging        
#>  3 Nature Astronomy               natastron       
#>  4 Nature Biomedical Engineering  natbiomedeng    
#>  5 Nature Biotechnology           nbt             
#>  6 Nature Cancer                  natcancer       
#>  7 Nature Cardiovascular Research natcardiovascres
#>  8 Nature Catalysis               natcatal        
#>  9 Nature Cell Biology            ncb             
#> 10 Nature Chemical Biology        nchembio        
#> # ℹ 58 more rows
…
